<svg width="64" height="64" viewBox="0 0 64 64" fill="none" xmlns="http://www.w3.org/2000/svg">
<path d="M3.86133 4.00098V55.1626H60.1381V4.00098H3.86133ZM20.3487 10.7012V7.3511H23.6461V10.7012H20.3487ZM13.7537 10.7012V7.3511H17.0512V10.7012H13.7537ZM7.1588 7.3511H10.4563V10.7012H7.1588V7.3511ZM56.8406 51.8126H7.1588V14.0514H56.8406V51.8126ZM26.9436 10.7012V7.3511H56.8406V10.7012H26.9436Z" fill="#F3401B"/>
<path d="M32.4495 48.6222C41.1009 48.6222 48.1393 41.5838 48.1393 32.9324C48.1393 24.2811 41.1009 17.2427 32.4495 17.2427C23.7982 17.2427 16.7598 24.2811 16.7598 32.9324C16.7598 41.5838 23.7982 48.6222 32.4495 48.6222ZM20.224 34.6075H26.2962C26.4174 37.8925 26.8922 40.9516 27.6659 43.3555C27.7829 43.7192 27.9159 44.0934 28.0658 44.4667C23.9212 42.8862 20.841 39.1336 20.224 34.6075ZM32.4495 20.6069C32.7227 20.7561 33.4861 21.5939 34.1873 24.0041C34.7748 26.0232 35.1422 28.5528 35.2502 31.2574H29.6485C29.7565 28.5528 30.124 26.0231 30.7115 24.004C31.4129 21.5939 32.1763 20.7561 32.4495 20.6069ZM35.2503 34.6075C35.1424 37.3119 34.7748 39.8416 34.1875 41.8607C33.4862 44.2709 32.7228 45.1088 32.4496 45.258C32.1764 45.1088 31.413 44.2709 30.7117 41.8609C30.1242 39.8417 29.7567 37.3121 29.6487 34.6075H35.2503ZM36.8333 44.4667C36.9831 44.0934 37.1161 43.7192 37.2332 43.3555C38.0067 40.9516 38.4816 37.8925 38.6027 34.6075H44.675C44.0579 39.1336 40.9777 42.8863 36.8333 44.4667ZM44.675 31.2574H38.6027C38.4815 27.9723 38.0067 24.9132 37.2332 22.5094C37.1161 22.1457 36.9831 21.7714 36.8333 21.3982C40.9777 22.9785 44.0579 26.7312 44.675 31.2574ZM28.0658 21.3982C27.9159 21.7715 27.7829 22.1457 27.6659 22.5094C26.8923 24.9132 26.4174 27.9722 26.2962 31.2574H20.224C20.841 26.7312 23.9212 22.9787 28.0658 21.3982Z" fill="#F3401B"/>
<line x1="3.86133" y1="57.721" x2="60.1381" y2="57.721" stroke="#F3401B" stroke-width="2.55804"/>
</svg>
